<?xml version="1.0" encoding="UTF-8" standalone="no"?>
<svg
   xmlns:dc="http://purl.org/dc/elements/1.1/"
   xmlns:cc="http://creativecommons.org/ns#"
   xmlns:rdf="http://www.w3.org/1999/02/22-rdf-syntax-ns#"
   xmlns:svg="http://www.w3.org/2000/svg"
   xmlns="http://www.w3.org/2000/svg"
   id="svg4918"
   version="1.1"
   viewBox="0 0 79.375008 79.375"
   height="79.375mm"
   width="79.375008mm">
  <defs
     id="defs4912" />
  <metadata
     id="metadata4915">
    <rdf:RDF>
      <cc:Work
         rdf:about="">
        <dc:format>image/svg+xml</dc:format>
        <dc:type
           rdf:resource="http://purl.org/dc/dcmitype/StillImage" />
        <dc:title />
      </cc:Work>
    </rdf:RDF>
  </metadata>
  <g
     transform="translate(-43.49246,-87.954)"
     id="layer1">
    <g
       style="stroke-width:0.5666666"
       id="g6170"
       transform="matrix(0.49803926,0,0,0.49803926,62.599306,-202.43539)">
      <rect
         style="opacity:1;vector-effect:none;fill:#f2f2f2;fill-opacity:1;fill-rule:nonzero;stroke:none;stroke-width:1.41666639;stroke-linecap:butt;stroke-linejoin:miter;stroke-miterlimit:4;stroke-dasharray:none;stroke-dashoffset:0;stroke-opacity:1;paint-order:markers stroke fill"
         id="rect4773"
         width="159.37498"
         height="159.37498"
         x="-38.364136"
         y="583.06525" />
      <path
         style="color:#000000;clip-rule:nonzero;display:inline;overflow:visible;visibility:visible;opacity:1;isolation:auto;mix-blend-mode:normal;color-interpolation:sRGB;color-interpolation-filters:linearRGB;solid-color:#000000;solid-opacity:1;fill:#123c75;fill-opacity:1;fill-rule:evenodd;stroke:none;stroke-width:4.01574802;stroke-linecap:butt;stroke-linejoin:round;stroke-miterlimit:4;stroke-dasharray:none;stroke-dashoffset:0;stroke-opacity:1;color-rendering:auto;image-rendering:auto;shape-rendering:auto;text-rendering:auto;enable-background:accumulate"
         d="m 40.757985,601.13784 c -4.063496,0.32642 -8.692698,2.99906 -13.321733,5.6716 0,0 -13.887113,8.01764 -13.887113,8.01764 0,0 -13.88711297,8.01763 -13.88711297,8.01763 -4.62903533,2.67255 -9.25790433,5.345 -11.57250503,9.35417 -2.314601,4.00917 -2.314601,9.35382 -2.314601,14.69899 0,0 0,16.03552 0,16.03552 0,0 0,16.03551 0,16.03551 0,5.34517 0,10.69086 2.314831,14.69964 2.3148311,4.00878 6.9432397,6.68096 11.57227503,9.35351 0,0 13.88711297,8.01763 13.88711297,8.01763 0,0 13.887113,8.01765 13.887113,8.01765 4.629035,2.67254 9.258691,5.34544 13.887504,5.34522 4.628813,-2.3e-4 9.257682,-2.67268 13.886722,-5.34522 0,0 13.887106,-8.01765 13.887106,-8.01765 0,0 13.887092,-8.01763 13.887092,-8.01763 4.629039,-2.67255 9.258265,-5.3452 11.572691,-8.70046 2.314426,-3.35525 2.314426,-7.39437 2.314426,-11.43296 0,0 0,-12.11578 0,-12.11578 0,0 0,-12.11578 0,-12.11578 0,-4.03859 0,-8.07666 -0.606106,-9.74628 -0.606105,-1.66962 -1.818653,-0.96954 -3.031033,-0.26956 0,0 -3.637209,2.09995 -3.637209,2.09995 0,0 -3.63716,2.09993 -3.63716,2.09993 -1.212386,0.69998 -2.424611,1.39987 -3.030884,3.06949 -0.606273,1.66962 -0.606273,4.30773 -0.606273,6.94636 0,0 0,7.91589 0,7.91589 0,0 0,7.9159 0,7.9159 0,2.63863 0,5.27779 -1.708238,7.58311 -1.708237,2.30533 -5.12505,4.27807 -8.541694,6.25072 0,0 -10.249946,5.91793 -10.249946,5.91793 0,0 -10.249946,5.91793 -10.249946,5.91793 -3.416649,1.97265 -6.833135,3.9452 -10.249551,3.94543 -3.416416,2.2e-4 -6.833688,-1.97278 -10.250334,-3.94543 0,0 -10.249939,-5.91793 -10.249939,-5.91793 0,0 -10.249938,-5.91793 -10.249938,-5.91793 -3.4166489,-1.97265 -6.8326758,-3.94493 -8.5413112,-6.90378 -1.70863547,-2.95884 -1.70863547,-6.90458 -1.70863547,-10.84979 0,0 0,-11.83562 0,-11.83562 0,0 0,-11.83563 0,-11.83563 0,-3.94521 0,-7.8899 1.70840807,-10.84914 1.7084081,-2.95923 5.1248897,-4.93178 8.5415386,-6.90443 0,0 10.249938,-5.91794 10.249938,-5.91794 0,0 10.249939,-5.91793 10.249939,-5.91793 3.416646,-1.97264 6.833462,-3.94538 9.684567,-4.2718 2.851104,-0.32641 5.135581,0.99258 7.420685,2.31193 0,0 6.855328,3.95808 6.855328,3.95808 0,0 6.855299,3.95806 6.855299,3.95806 2.285107,1.31936 4.57083,2.63908 5.030502,3.69268 0.459672,1.0536 -0.905829,1.84201 -2.271152,2.63031 0,0 -4.095977,2.36489 -4.095977,2.36489 0,0 -4.095977,2.36492 -4.095977,2.36492 -1.365323,0.7883 -2.730478,1.5765 -3.851269,1.78119 -1.120791,0.20469 -2.001072,-0.17615 -2.893786,-0.50236 -0.892713,-0.32621 -1.805906,-0.60107 -2.728824,-0.82154 -0.922918,-0.22047 -1.861748,-0.38802 -2.805512,-0.50051 -0.943764,-0.1125 -1.89882,-0.1705 -4.013996,0.13112 -2.115177,0.30161 -5.369384,0.95861 -8.21438,2.1493 -2.844995,1.19069 -5.511591,2.98855 -7.663935,5.1409 -2.152344,2.15234 -3.950212,4.81894 -5.140902,7.66394 -1.19069,2.845 -1.847687,6.0992 -1.847687,9.37443 0,3.27523 0.656998,6.52944 1.847688,9.37444 1.19069,2.84499 2.988555,5.51159 5.140902,7.66393 2.152347,2.15235 4.818941,3.95022 7.663935,5.14091 2.844995,1.19069 6.099202,1.84769 9.374434,1.84769 3.275232,0 6.529438,-0.657 9.374433,-1.84769 2.844995,-1.19069 5.511585,-2.98855 7.663933,-5.1409 2.152347,-2.15234 3.950215,-4.81894 5.140906,-7.66394 1.190691,-2.845 1.847691,-6.09921 2.141597,-8.27577 0.293905,-2.17657 0.22048,-3.25436 0.07798,-4.31599 -0.142495,-1.06163 -0.354985,-2.11621 -0.634018,-3.14808 -0.279032,-1.03188 -0.626981,-2.04983 -1.038947,-3.03859 -0.411967,-0.98876 -0.892475,-1.95814 -0.313369,-2.91408 0.579106,-0.95594 2.216049,-1.9011 3.85317,-2.84636 0,0 4.911356,-2.83577 4.911356,-2.83577 0,0 4.911357,-2.83577 4.911357,-2.83577 0,0 4.911364,-2.83576 4.911364,-2.83576 0,0 3.637157,-2.09994 3.637157,-2.09994 0,0 3.63716,-2.09994 3.63716,-2.09994 0,0 3.637209,-2.09995 3.637209,-2.09995 1.21238,-0.69998 2.424932,-1.40006 2.46557,-2.07647 0.04064,-0.67641 -1.091514,-1.33006 -2.223056,-1.98335 0,0 -3.394626,-1.95986 -3.394626,-1.95986 0,0 -3.394618,-1.95986 -3.394618,-1.95986 0,0 -3.394633,-1.95987 -3.394633,-1.95987 0,0 -10.492478,-6.05778 -10.492478,-6.05778 0,0 -10.492494,-6.05777 -10.492494,-6.05777 0,0 -10.492467,-6.05776 -10.492467,-6.05776 -3.497498,-2.01926 -6.99437,-4.03815 -11.057867,-3.71174 z m -2.750172,49.27598 c 0.900688,0 1.7956,0.18067 2.577977,0.50812 0.782377,0.32744 1.515683,0.82185 2.107578,1.41375 0.591895,0.59189 1.086308,1.3252 1.413748,2.10758 0.32744,0.78237 0.508113,1.67728 0.508111,2.57797 -3e-6,0.9007 -0.180673,1.7956 -0.508111,2.57797 -0.327438,0.78237 -0.821855,1.51569 -1.41375,2.10758 -0.591894,0.5919 -1.325202,1.08631 -2.107577,1.41375 -0.782376,0.32744 -1.677288,0.50811 -2.577976,0.50811 -0.900688,0 -1.795594,-0.18067 -2.577968,-0.50811 -0.782373,-0.32744 -1.515681,-0.82185 -2.10758,-1.41375 -0.591899,-0.59189 -1.086314,-1.32521 -1.413752,-2.10758 -0.327437,-0.78237 -0.50811,-1.67727 -0.508112,-2.57797 -3e-6,-0.90069 0.180673,-1.7956 0.508112,-2.57797 0.327439,-0.78238 0.821851,-1.51569 1.41375,-2.10759 0.5919,-0.59189 1.325206,-1.0863 2.107581,-1.41375 0.782375,-0.32744 1.677281,-0.50811 2.577969,-0.50811 z"
         id="path2659-8" />
    </g>
  </g>
</svg>
