%!PS-Adobe-3.0 EPSF-3.0
%%Creator: cairo 1.15.10 (http://cairographics.org)
%%CreationDate: Wed Oct 16 17:46:47 2019
%%Pages: 1
%%DocumentData: Clean7Bit
%%LanguageLevel: 2
%%BoundingBox: 0 0 203 225
%%EndComments
%%BeginProlog
50 dict begin
/q { gsave } bind def
/Q { grestore } bind def
/cm { 6 array astore concat } bind def
/w { setlinewidth } bind def
/J { setlinecap } bind def
/j { setlinejoin } bind def
/M { setmiterlimit } bind def
/d { setdash } bind def
/m { moveto } bind def
/l { lineto } bind def
/c { curveto } bind def
/h { closepath } bind def
/re { exch dup neg 3 1 roll 5 3 roll moveto 0 rlineto
      0 exch rlineto 0 rlineto closepath } bind def
/S { stroke } bind def
/f { fill } bind def
/f* { eofill } bind def
/n { newpath } bind def
/W { clip } bind def
/W* { eoclip } bind def
/BT { } bind def
/ET { } bind def
/BDC { mark 3 1 roll /BDC pdfmark } bind def
/EMC { mark /EMC pdfmark } bind def
/cairo_store_point { /cairo_point_y exch def /cairo_point_x exch def } def
/Tj { show currentpoint cairo_store_point } bind def
/TJ {
  {
    dup
    type /stringtype eq
    { show } { -0.001 mul 0 cairo_font_matrix dtransform rmoveto } ifelse
  } forall
  currentpoint cairo_store_point
} bind def
/cairo_selectfont { cairo_font_matrix aload pop pop pop 0 0 6 array astore
    cairo_font exch selectfont cairo_point_x cairo_point_y moveto } bind def
/Tf { pop /cairo_font exch def /cairo_font_matrix where
      { pop cairo_selectfont } if } bind def
/Td { matrix translate cairo_font_matrix matrix concatmatrix dup
      /cairo_font_matrix exch def dup 4 get exch 5 get cairo_store_point
      /cairo_font where { pop cairo_selectfont } if } bind def
/Tm { 2 copy 8 2 roll 6 array astore /cairo_font_matrix exch def
      cairo_store_point /cairo_font where { pop cairo_selectfont } if } bind def
/g { setgray } bind def
/rg { setrgbcolor } bind def
/d1 { setcachedevice } bind def
/cairo_data_source {
  CairoDataIndex CairoData length lt
    { CairoData CairoDataIndex get /CairoDataIndex CairoDataIndex 1 add def }
    { () } ifelse
} def
/cairo_flush_ascii85_file { cairo_ascii85_file status { cairo_ascii85_file flushfile } if } def
/cairo_image { image cairo_flush_ascii85_file } def
/cairo_imagemask { imagemask cairo_flush_ascii85_file } def
%%EndProlog
%%BeginSetup
%%EndSetup
%%Page: 1 1
%%BeginPageSetup
%%PageBoundingBox: 0 0 203 225
%%EndPageSetup
q 0 0 203 225 rectclip
1 0 0 -1 0 225 cm q
0 g
100.336 0.062 m 92.918 0.66 84.473 5.535 76.023 10.414 c 76.023 10.414 
50.684 25.043 50.684 25.043 c 50.684 25.043 25.34 39.676 25.34 39.676 c 
16.895 44.551 8.449 49.43 4.223 56.746 c 0 64.062 0 73.812 0 83.566 c 0 
83.566 0 112.828 0 112.828 c 0 112.828 0 142.09 0 142.09 c 0 151.844 0 161.602
 4.223 168.914 c 8.449 176.23 16.895 181.109 25.34 185.984 c 25.34 185.984
 50.684 200.613 50.684 200.613 c 50.684 200.613 76.023 215.246 76.023 215.246
 c 84.473 220.121 92.922 225 101.367 225 c 109.812 225 118.262 220.121 126.707
 215.246 c 126.707 215.246 152.051 200.613 152.051 200.613 c 152.051 200.613
 177.391 185.984 177.391 185.984 c 185.836 181.109 194.285 176.23 198.508
 170.109 c 202.73 163.984 202.73 156.613 202.73 149.246 c 202.73 149.246
 202.73 127.137 202.73 127.137 c 202.73 127.137 202.73 105.027 202.73 105.027
 c 202.73 97.656 202.73 90.289 201.625 87.242 c 200.52 84.195 198.309 85.473
 196.094 86.75 c 196.094 86.75 189.457 90.582 189.457 90.582 c 189.457 90.582
 182.82 94.414 182.82 94.414 c 180.609 95.691 178.395 96.969 177.289 100.016
 c 176.184 103.062 176.184 107.875 176.184 112.691 c 176.184 112.691 176.184
 127.137 176.184 127.137 c 176.184 127.137 176.184 141.582 176.184 141.582
 c 176.184 146.395 176.184 151.211 173.066 155.418 c 169.949 159.625 163.715
 163.227 157.48 166.824 c 157.48 166.824 138.773 177.625 138.773 177.625
 c 138.773 177.625 120.07 188.422 120.07 188.422 c 113.836 192.023 107.602
 195.621 101.367 195.621 c 95.133 195.625 88.898 192.023 82.66 188.422 c
 82.66 188.422 63.957 177.625 63.957 177.625 c 63.957 177.625 45.254 166.824
 45.254 166.824 c 39.02 163.227 32.785 159.625 29.668 154.227 c 26.547 148.828
 26.547 141.625 26.547 134.426 c 26.547 134.426 26.547 112.828 26.547 112.828
 c 26.547 112.828 26.547 91.23 26.547 91.23 c 26.547 84.031 26.547 76.836
 29.668 71.434 c 32.785 66.035 39.02 62.434 45.254 58.836 c 45.254 58.836
 63.957 48.035 63.957 48.035 c 63.957 48.035 82.66 37.234 82.66 37.234 c
 88.898 33.637 95.133 30.035 100.336 29.441 c 105.539 28.844 109.707 31.254
 113.875 33.66 c 113.875 33.66 126.387 40.883 126.387 40.883 c 126.387 40.883
 138.895 48.105 138.895 48.105 c 143.066 50.512 147.234 52.922 148.074 54.844
 c 148.914 56.766 146.422 58.207 143.93 59.645 c 143.93 59.645 136.457 63.961
 136.457 63.961 c 136.457 63.961 128.98 68.273 128.98 68.273 c 126.492 69.715
 124 71.152 121.953 71.523 c 119.91 71.898 118.301 71.203 116.672 70.609
 c 115.043 70.012 113.379 69.512 111.695 69.109 c 110.008 68.707 108.297
 68.402 106.574 68.195 c 104.852 67.992 103.109 67.887 99.25 68.434 c 95.391
 68.984 89.449 70.184 84.258 72.355 c 79.066 74.531 74.203 77.812 70.273
 81.738 c 66.348 85.668 63.066 90.531 60.895 95.723 c 58.719 100.914 57.52
 106.855 57.52 112.832 c 57.52 118.809 58.719 124.746 60.895 129.938 c 63.066
 135.129 66.348 139.996 70.273 143.922 c 74.203 147.852 79.066 151.133 84.258
 153.305 c 89.449 155.477 95.391 156.676 101.367 156.676 c 107.344 156.676
 113.281 155.477 118.473 153.305 c 123.664 151.133 128.531 147.852 132.457
 143.922 c 136.387 139.996 139.668 135.129 141.84 129.938 c 144.012 124.746
 145.211 118.809 145.746 114.836 c 146.285 110.863 146.148 108.898 145.891
 106.961 c 145.629 105.023 145.242 103.098 144.734 101.215 c 144.223 99.332
 143.59 97.473 142.836 95.668 c 142.086 93.867 141.207 92.098 142.266 90.352
 c 143.32 88.609 146.309 86.883 149.297 85.156 c 149.297 85.156 158.258 
79.984 158.258 79.984 c 158.258 79.984 167.223 74.809 167.223 74.809 c 167.223
 74.809 176.184 69.633 176.184 69.633 c 176.184 69.633 182.82 65.801 182.82
 65.801 c 182.82 65.801 189.457 61.969 189.457 61.969 c 189.457 61.969 196.094
 58.137 196.094 58.137 c 198.309 56.859 200.52 55.582 200.594 54.348 c 200.668
 53.113 198.602 51.922 196.539 50.73 c 196.539 50.73 190.344 47.152 190.344
 47.152 c 190.344 47.152 184.148 43.578 184.148 43.578 c 184.148 43.578 
177.953 40 177.953 40 c 177.953 40 158.809 28.945 158.809 28.945 c 158.809
 28.945 139.66 17.891 139.66 17.891 c 139.66 17.891 120.512 6.836 120.512
 6.836 c 114.129 3.152 107.75 -0.531 100.336 0.062 c h
95.316 89.984 m 96.961 89.984 98.594 90.312 100.02 90.91 c 101.449 91.508
 102.785 92.41 103.867 93.492 c 104.945 94.57 105.848 95.91 106.445 97.336
 c 107.043 98.766 107.375 100.398 107.375 102.043 c 107.375 103.684 107.043
 105.316 106.445 106.746 c 105.848 108.172 104.945 109.512 103.867 110.59
 c 102.785 111.672 101.449 112.574 100.02 113.172 c 98.594 113.77 96.961
 114.098 95.316 114.098 c 93.672 114.098 92.039 113.77 90.613 113.172 c 
89.184 112.574 87.844 111.672 86.766 110.59 c 85.684 109.512 84.781 108.172
 84.188 106.746 c 83.59 105.316 83.258 103.684 83.258 102.043 c 83.258 100.398
 83.59 98.766 84.188 97.336 c 84.781 95.91 85.684 94.57 86.766 93.492 c 
87.844 92.41 89.184 91.508 90.613 90.91 c 92.039 90.312 93.672 89.984 95.316
 89.984 c h
95.316 89.984 m f*
Q Q
showpage
%%Trailer
end
%%EOF
