<?xml version="1.0" encoding="UTF-8" standalone="no"?>
<!-- Created with Inkscape (http://www.inkscape.org/) -->

<svg
   xmlns:dc="http://purl.org/dc/elements/1.1/"
   xmlns:cc="http://creativecommons.org/ns#"
   xmlns:rdf="http://www.w3.org/1999/02/22-rdf-syntax-ns#"
   xmlns:svg="http://www.w3.org/2000/svg"
   xmlns="http://www.w3.org/2000/svg"
   xmlns:sodipodi="http://sodipodi.sourceforge.net/DTD/sodipodi-0.dtd"
   xmlns:inkscape="http://www.inkscape.org/namespaces/inkscape"
   width="71.519402mm"
   height="79.375mm"
   viewBox="0 0 253.41519 281.25"
   id="svg4608"
   version="1.1"
   inkscape:version="0.92.3 (2405546, 2018-03-11)"
   sodipodi:docname="icon_eavise.svg"
   inkscape:export-filename="/home/fdf/Downloads/eavise_logo_tagline.png"
   inkscape:export-xdpi="290.47766"
   inkscape:export-ydpi="290.47766">
  <defs
     id="defs4610">
    <inkscape:path-effect
       effect="bspline"
       id="path-effect3441"
       is_visible="true"
       weight="33.333333"
       steps="2"
       helper_size="0"
       apply_no_weight="true"
       apply_with_weight="true"
       only_selected="true" />
    <inkscape:path-effect
       effect="bspline"
       id="path-effect2211"
       is_visible="true"
       weight="33.333333"
       steps="2"
       helper_size="0"
       apply_no_weight="true"
       apply_with_weight="true"
       only_selected="true" />
    <inkscape:path-effect
       effect="bspline"
       id="path-effect2161"
       is_visible="true"
       weight="33.333333"
       steps="2"
       helper_size="0"
       apply_no_weight="true"
       apply_with_weight="true"
       only_selected="true" />
    <inkscape:path-effect
       effect="bspline"
       id="path-effect2091"
       is_visible="true"
       weight="33.5333"
       steps="2"
       helper_size="0"
       apply_no_weight="true"
       apply_with_weight="true"
       only_selected="true" />
    <inkscape:path-effect
       effect="bspline"
       id="path-effect966"
       is_visible="true"
       weight="33.333333"
       steps="2"
       helper_size="0"
       apply_no_weight="true"
       apply_with_weight="true"
       only_selected="false" />
    <inkscape:path-effect
       effect="bspline"
       id="path-effect840"
       is_visible="true"
       weight="33.333333"
       steps="2"
       helper_size="0"
       apply_no_weight="true"
       apply_with_weight="true"
       only_selected="false" />
    <inkscape:path-effect
       effect="bspline"
       id="path-effect4794"
       is_visible="true"
       weight="3.2"
       steps="2"
       helper_size="0"
       apply_no_weight="true"
       apply_with_weight="true"
       only_selected="false" />
    <inkscape:path-effect
       effect="bspline"
       id="path-effect4790"
       is_visible="true"
       weight="5"
       steps="2"
       helper_size="0"
       apply_no_weight="true"
       apply_with_weight="true"
       only_selected="false" />
    <inkscape:path-effect
       effect="bspline"
       id="path-effect2096"
       is_visible="true"
       weight="33.333333"
       steps="2"
       helper_size="0"
       apply_no_weight="true"
       apply_with_weight="true"
       only_selected="true" />
    <inkscape:path-effect
       effect="bspline"
       id="path-effect2211-0"
       is_visible="true"
       weight="33.333333"
       steps="2"
       helper_size="0"
       apply_no_weight="true"
       apply_with_weight="true"
       only_selected="true" />
  </defs>
  <sodipodi:namedview
     id="base"
     pagecolor="#ffffff"
     bordercolor="#666666"
     borderopacity="1.0"
     inkscape:pageopacity="0.0"
     inkscape:pageshadow="2"
     inkscape:zoom="1.1534139"
     inkscape:cx="168.28491"
     inkscape:cy="103.90487"
     inkscape:document-units="px"
     inkscape:current-layer="layer1"
     showgrid="false"
     fit-margin-top="0"
     fit-margin-left="0"
     fit-margin-right="0"
     fit-margin-bottom="0"
     inkscape:window-width="1680"
     inkscape:window-height="986"
     inkscape:window-x="0"
     inkscape:window-y="27"
     inkscape:window-maximized="1"
     showguides="true"
     inkscape:guide-bbox="true"
     inkscape:snap-smooth-nodes="true"
     inkscape:object-nodes="true"
     inkscape:snap-intersection-paths="true"
     inkscape:object-paths="true"
     inkscape:snap-midpoints="false"
     inkscape:snap-global="true"
     inkscape:snap-text-baseline="false" />
  <metadata
     id="metadata4613">
    <rdf:RDF>
      <cc:Work
         rdf:about="">
        <dc:format>image/svg+xml</dc:format>
        <dc:type
           rdf:resource="http://purl.org/dc/dcmitype/StillImage" />
        <dc:title></dc:title>
      </cc:Work>
    </rdf:RDF>
  </metadata>
  <g
     inkscape:label="Layer 1"
     inkscape:groupmode="layer"
     id="layer1"
     transform="translate(25.036586,-461.78007)">
    <path
       style="color:#000000;clip-rule:nonzero;display:inline;overflow:visible;visibility:visible;opacity:1;isolation:auto;mix-blend-mode:normal;color-interpolation:sRGB;color-interpolation-filters:linearRGB;solid-color:#000000;solid-opacity:1;fill:#123c75;fill-opacity:1;fill-rule:evenodd;stroke:none;stroke-width:7.08661461;stroke-linecap:butt;stroke-linejoin:round;stroke-miterlimit:4;stroke-dasharray:none;stroke-dashoffset:0;stroke-opacity:1;color-rendering:auto;image-rendering:auto;shape-rendering:auto;text-rendering:auto;enable-background:accumulate"
       d="m 100.38138,461.8597 c -9.268951,0.74456 -19.828299,6.84093 -30.387263,12.93708 0,0 -31.676902,18.28847 -31.676902,18.28847 0,0 -31.6768999,18.28846 -31.6768999,18.28846 -10.558967,6.09615 -21.1175541,12.19209 -26.3972281,21.33712 -5.279673,9.14503 -5.279673,21.33632 -5.279673,33.52881 0,0 0,36.57748 0,36.57748 0,0 0,36.57748 0,36.57748 0,12.19249 0,24.38618 5.280195,33.53031 5.280195,9.14414 15.8377391,15.23947 26.3967061,21.33562 0,0 31.6768999,18.28846 31.6768999,18.28846 0,0 31.676902,18.28847 31.676902,18.28847 10.558964,6.09615 21.119354,12.19312 31.677793,12.1926 10.55845,-5.2e-4 21.11704,-6.09645 31.67601,-12.1926 0,0 31.67691,-18.28847 31.67691,-18.28847 0,0 31.67688,-18.28846 31.67688,-18.28846 10.55897,-6.09615 21.11833,-12.19253 26.39762,-19.84597 5.27929,-7.65344 5.27929,-16.86679 5.27929,-26.07894 0,0 0,-27.63645 0,-27.63645 0,0 0,-27.63645 0,-27.63645 0,-9.21215 0,-18.42309 -1.38256,-22.23154 -1.38255,-3.80844 -4.14843,-2.21155 -6.91392,-0.61487 0,0 -8.29648,4.79003 -8.29648,4.79003 0,0 -8.29651,4.79002 -8.29651,4.79002 -2.76549,1.59668 -5.53061,3.19314 -6.91355,7.00159 -1.38293,3.80845 -1.38293,9.82604 -1.38293,15.84484 0,0 0,18.05638 0,18.05638 0,0 0,18.05639 0,18.05639 0,6.01879 0,12.03879 -3.89654,17.2973 -3.89654,5.25851 -11.6904,9.7584 -19.48387,14.25806 0,0 -23.38042,13.49899 -23.38042,13.49899 0,0 -23.38041,13.49897 -23.38041,13.49897 -7.79347,4.49966 -15.58657,8.9991 -23.37952,8.99962 -7.792946,5.2e-4 -15.587837,-4.49996 -23.381305,-8.99962 0,0 -23.380414,-13.49897 -23.380414,-13.49897 0,0 -23.380404,-13.49899 -23.380404,-13.49899 -7.793473,-4.49966 -15.585529,-8.9985 -19.482973,-15.74771 -3.8974449,-6.7492 -3.8974449,-15.74954 -3.8974449,-24.74868 0,0 0,-26.99741 0,-26.99741 0,0 0,-26.99741 0,-26.99741 0,-8.99914 0,-17.99708 3.8969249,-24.74718 3.896925,-6.75011 11.69002,-11.24955 19.483493,-15.74921 0,0 23.380404,-13.49899 23.380404,-13.49899 0,0 23.380414,-13.49898 23.380414,-13.49898 7.793468,-4.49966 15.587319,-8.99953 22.090765,-9.7441 6.50345,-0.74457 11.71442,2.2641 16.92681,5.27358 0,0 15.63718,9.02848 15.63718,9.02848 0,0 15.63717,9.02847 15.63717,9.02847 5.21239,3.00949 10.4262,6.0198 11.4747,8.4231 1.04851,2.40329 -2.06622,4.20166 -5.18056,5.9998 0,0 -9.34304,5.39441 -9.34304,5.39441 0,0 -9.34304,5.39443 -9.34304,5.39443 -3.11434,1.79814 -6.22831,3.59606 -8.78485,4.06296 -2.55655,0.4669 -4.56452,-0.40181 -6.60082,-1.1459 -2.03629,-0.74409 -4.11932,-1.37106 -6.22453,-1.87395 -2.10521,-0.5029 -4.2467,-0.88509 -6.39945,-1.14168 -2.15275,-0.2566 -4.33128,-0.38892 -9.156054,0.29907 -4.824772,0.688 -12.247706,2.18662 -18.737223,4.90262 -6.489517,2.71599 -12.572107,6.81699 -17.481668,11.72655 -4.90956,4.90956 -9.010555,10.99215 -11.726547,17.48167 -2.715992,6.48951 -4.214616,13.91245 -4.214616,21.38335 0,7.4709 1.498624,14.89385 4.214616,21.38336 2.715992,6.48952 6.816987,12.57211 11.726547,17.48167 4.909561,4.90956 10.992146,9.01056 17.481665,11.72655 6.489518,2.71599 13.912452,4.21462 21.38335,4.21462 7.47091,-10e-6 14.89384,-1.49863 21.38336,-4.21462 6.48952,-2.71599 12.57211,-6.81699 17.48167,-11.72655 4.90955,-4.90956 9.01055,-10.99215 11.72654,-17.48167 2.716,-6.48951 4.21462,-13.91246 4.88503,-18.87726 0.67041,-4.96479 0.50294,-7.4233 0.17791,-9.8449 -0.32504,-2.42161 -0.80974,-4.82715 -1.44622,-7.18088 -0.63648,-2.35372 -1.43018,-4.6757 -2.36988,-6.93109 -0.93971,-2.2554 -2.03576,-4.4666 -0.71481,-6.64712 1.32095,-2.18052 5.05488,-4.33646 8.7892,-6.49262 0,0 11.20295,-6.46847 11.20295,-6.46847 0,0 11.20296,-6.46847 11.20296,-6.46847 0,0 11.20295,-6.46846 11.20295,-6.46846 0,0 8.29648,-4.79003 8.29648,-4.79003 0,0 8.29651,-4.79003 8.29651,-4.79003 0,0 8.29648,-4.79004 8.29648,-4.79004 2.76549,-1.59668 5.53137,-3.19357 5.62409,-4.73648 0.0927,-1.5429 -2.48977,-3.03389 -5.07085,-4.52406 0,0 -7.74324,-4.47051 -7.74324,-4.47051 0,0 -7.74325,-4.47051 -7.74325,-4.47051 0,0 -7.74324,-4.47052 -7.74324,-4.47052 0,0 -23.93367,-13.81795 -23.93367,-13.81795 0,0 -23.93365,-13.81795 -23.93365,-13.81795 0,0 -23.93365,-13.81795 -23.93365,-13.81795 -7.97789,-4.60598 -15.95435,-9.21114 -25.2233,-8.46657 z m -6.27323,112.39994 c 2.054491,0 4.095816,0.41212 5.880437,1.15902 1.784623,0.7469 3.457323,1.87467 4.807453,3.2248 1.35013,1.35013 2.4779,3.02284 3.2248,4.80746 0.7469,1.78462 1.15902,3.82593 1.15902,5.88043 0,2.0545 -0.41212,4.0958 -1.15902,5.88042 -0.7469,1.78462 -1.87468,3.45732 -3.22481,4.80745 -1.35013,1.35013 -3.02283,2.4779 -4.80745,3.2248 -1.784616,0.7469 -3.825941,1.15903 -5.88043,1.15903 -2.054488,-10e-6 -4.09579,-0.41213 -5.880406,-1.15903 -1.784616,-0.7469 -3.457322,-1.87466 -4.807457,-3.2248 -1.350135,-1.35013 -2.477907,-3.02284 -3.224806,-4.80746 -0.746899,-1.78461 -1.159017,-3.82591 -1.159019,-5.88041 -2e-6,-2.0545 0.412118,-4.09581 1.159016,-5.88043 0.746898,-1.78462 1.874669,-3.45733 3.224801,-4.80746 1.350132,-1.35013 3.022837,-2.4779 4.807458,-3.2248 1.784621,-0.7469 3.825922,-1.15902 5.880413,-1.15902 z"
       id="path2659-8"
       inkscape:connector-curvature="0"
       sodipodi:nodetypes="cccccccccccccccccccccccccccccccccccccccccccccccccccccssscssssssssssscssscccccccccccccccccsssssssssssssssss"
       inkscape:path-effect="#path-effect3441"
       inkscape:original-d="m 101.67101,456.50833 c -10.55776,6.09735 -31.676893,18.28845 -31.676893,18.28845 0,0 -31.676902,18.28847 -31.676902,18.28847 0,0 -31.6768999,18.28846 -31.6768999,18.28846 0,0 -21.1167331,12.19351 -31.6769011,18.28846 0.0012,12.19369 0,36.57747 0,36.57747 0,0 0,36.57748 0,36.57748 0,0 0,36.57748 0,36.57748 0,0 0.0012,24.38618 0,36.57747 10.560168,6.09736 31.6769011,18.28846 31.6769011,18.28846 0,0 31.6768999,18.28846 31.6768999,18.28846 0,0 31.676902,18.28847 31.676902,18.28847 0,0 21.119133,12.1935 31.676893,18.28844 10.56017,-6.09494 31.67691,-18.28844 31.67691,-18.28844 0,0 31.67691,-18.28847 31.67691,-18.28847 0,0 31.67688,-18.28846 31.67688,-18.28846 0,0 21.11915,-12.1911 31.67691,-18.28846 10e-4,-9.21095 0,-27.63645 0,-27.63645 0,0 0,-27.63645 0,-27.63645 0,0 0,-27.63645 0,-27.63645 0,0 10e-4,-18.42309 0,-27.63644 -2.76429,1.59788 -8.29648,4.79003 -8.29648,4.79003 0,0 -8.29648,4.79003 -8.29648,4.79003 0,0 -8.29651,4.79002 -8.29651,4.79002 0,0 -5.52979,3.19456 -8.29648,4.79003 0.001,6.02001 0,18.0564 0,18.0564 0,0 0,18.05638 0,18.05638 0,0 0,18.05639 0,18.05639 0,0 0.001,12.03879 0,18.05638 -7.79226,4.50085 -23.38041,13.49898 -23.38041,13.49898 0,0 -23.38042,13.49899 -23.38042,13.49899 0,0 -23.38041,13.49897 -23.38041,13.49897 0,0 -15.58575,9.00053 -23.38042,13.49898 -7.79227,-4.49845 -23.380405,-13.49898 -23.380405,-13.49898 0,0 -23.380414,-13.49897 -23.380414,-13.49897 0,0 -23.380404,-13.49899 -23.380404,-13.49899 0,0 -15.585744,-8.99813 -23.3804179,-13.49898 0.0012,-8.99793 0,-26.99741 0,-26.99741 0,0 0,-26.99741 0,-26.99741 0,0 0,-26.99741 0,-26.99741 0,0 0.0012,-17.99708 0,-26.99741 7.7946739,-4.49845 23.3804179,-13.49898 23.3804179,-13.49898 0,0 23.380404,-13.49899 23.380404,-13.49899 0,0 23.380414,-13.49898 23.380414,-13.49898 0,0 15.588135,-8.99812 23.380405,-13.49897 5.21359,3.01068 15.63717,9.02845 15.63717,9.02845 0,0 15.63718,9.02848 15.63718,9.02848 0,0 15.63717,9.02847 15.63717,9.02847 0,0 10.42598,6.02018 15.63716,9.02847 -3.11313,1.79934 -9.34302,5.39443 -9.34302,5.39443 0,0 -9.34304,5.39441 -9.34304,5.39441 0,0 -9.34304,5.39443 -9.34304,5.39443 0,0 -6.22749,3.59748 -9.34303,5.39442 -1.99861,-0.86399 -3.95621,-1.84914 -5.99943,-2.59554 -2.04324,-0.74639 -4.12633,-1.37316 -6.2386,-1.87775 -2.11228,-0.50457 -4.25373,-0.88699 -6.41371,-1.14465 -2.15998,-0.25768 -4.33847,-0.39061 -6.52481,-0.39629 -7.77541,0 -15.182761,1.57581 -21.920136,4.42548 -6.737364,2.84967 -12.804755,6.97321 -17.900214,12.06866 -5.09546,5.09546 -9.218987,11.16286 -12.068659,17.90022 -2.84967,6.73737 -4.425474,14.14473 -4.425474,21.92014 0,7.77541 1.575804,15.18278 4.425474,21.92015 2.849672,6.73736 6.973199,12.80476 12.068659,17.90022 5.095459,5.09545 11.16285,9.21898 17.900214,12.06866 6.737375,2.84966 14.144726,4.42547 21.920136,4.42547 7.77542,0 15.18277,-1.57581 21.92015,-4.42547 6.73736,-2.84968 12.80476,-6.97321 17.90021,-12.06866 5.09545,-5.09546 9.21899,-11.16286 12.06866,-17.90022 2.84967,-6.73737 4.42548,-14.14474 4.42548,-21.92015 -0.006,-2.46969 -0.17459,-4.92812 -0.50137,-7.36006 -0.32676,-2.43196 -0.8118,-4.83744 -1.451,-7.20121 -0.63921,-2.36378 -1.43257,-4.68588 -2.376,-6.95109 -0.94342,-2.26519 -2.18299,-4.40525 -3.27629,-6.60967 3.73553,-2.15496 11.20296,-6.46848 11.20296,-6.46848 0,0 11.20295,-6.46847 11.20295,-6.46847 0,0 11.20296,-6.46847 11.20296,-6.46847 0,0 11.20295,-6.46846 11.20295,-6.46846 0,0 8.29648,-4.79003 8.29648,-4.79003 0,0 8.29651,-4.79003 8.29651,-4.79003 0,0 8.29648,-4.79004 8.29648,-4.79004 0,0 5.53219,-3.19215 8.29648,-4.79003 -2.57988,-1.48897 -7.74324,-4.47051 -7.74324,-4.47051 0,0 -7.74324,-4.47051 -7.74324,-4.47051 0,0 -7.74325,-4.47051 -7.74325,-4.47051 0,0 -7.74324,-4.47052 -7.74324,-4.47052 0,0 -23.93367,-13.81795 -23.93367,-13.81795 0,0 -23.93365,-13.81795 -23.93365,-13.81795 0,0 -23.93365,-13.81795 -23.93365,-13.81795 0,0 -15.95457,-9.21076 -23.93367,-13.81794 z m -7.56286,117.33653 c 2.13823,0 4.17527,0.43334 6.02804,1.21699 1.85279,0.78368 3.52132,1.91764 4.92256,3.31889 1.40125,1.40126 2.53522,3.06979 3.31889,4.92256 0.78365,1.85279 1.217,3.88981 1.217,6.02804 0,2.13825 -0.43335,4.17526 -1.217,6.02804 -0.78367,1.85278 -1.91764,3.52131 -3.31889,4.92256 -1.40124,1.40127 -3.06977,2.53523 -4.92256,3.31888 -1.85277,0.78366 -3.88981,1.21701 -6.02804,1.21701 -2.13823,0 -4.175246,-0.43335 -6.028017,-1.21701 -1.852786,-0.78365 -3.521317,-1.91761 -4.922569,-3.31888 -1.401252,-1.40125 -2.535222,-3.06978 -3.318883,-4.92256 -0.783651,-1.85278 -1.217002,-3.88979 -1.217002,-6.02804 0,-2.13823 0.433351,-4.17525 1.217002,-6.02804 0.783661,-1.85277 1.917631,-3.5213 3.318883,-4.92256 1.401252,-1.40125 3.069783,-2.53521 4.922569,-3.31889 1.852771,-0.78365 3.889787,-1.21699 6.028017,-1.21699 z" />
  </g>
</svg>
